BIOS 611 HW3 Exploratory Analysis, tibbles, and data import (Chapters 7, 10, and 11.2)
…
Exercise 4

How could you rescale the count dataset (diamonds %>% count(color, cut)) to more clearly show the distribution of cut within colour, or colour within cut?

You could create a proportion of cut within color or vice versa.

diamonds %>%
  count(color,cut) %>%
  group_by(color) %>% 
  mutate(prop_cut_in_col = n/sum(n))%>%
  group_by(cut) %>%
  mutate(prop_col_in_cut = n/sum(n))

## # A tibble: 35 x 5
## # Groups:   cut [5]
##    color cut           n prop_cut_in_col prop_col_in_cut
##    <ord> <ord>     <int>           <dbl>           <dbl>
##  1 D     Fair        163          0.0241           0.101
##  2 D     Good        662          0.0977           0.135
##  3 D     Very Good  1513          0.223            0.125
##  4 D     Premium    1603          0.237            0.116
##  5 D     Ideal      2834          0.418            0.132
##  6 E     Fair        224          0.0229           0.139
##  7 E     Good        933          0.0952           0.190
##  8 E     Very Good  2400          0.245            0.199
##  9 E     Premium    2337          0.239            0.169
## 10 E     Ideal      3903          0.398            0.181
## # ... with 25 more rows
…
```
## [1] "one"   "two"   "three"
```

What does tibble::enframe() do? When might you use it?

(How can you simply generate a tibble of two vectors (1 2 3  26, a b c  z)?)

enframe() converts vectors with names to a single tibble containing all of the vectors.

num <- c(1:26)
let <- letters[seq(1,26)]
enframe(c(a=1,b=2,c=3,d=4,e=5,f=6,g=7,h=8,i=9,j=10,k=11,l=12,m=13,n=14,o=15,p=16,q=17,r=18,s=19,t=20,u=21,v=22,w=23,x=24,y=25,z=26))

## # A tibble: 26 x 2
##    name  value
##    <chr> <dbl>
##  1 a         1
##  2 b         2
##  3 c         3
##  4 d         4
##  5 e         5
##  6 f         6
##  7 g         7
##  8 h         8
##  9 i         9
## 10 j        10
## # ... with 16 more rows
…
